{
    "type": "service_account",
    "project_id": "pushno-7ead3",
    "private_key_id": "6782aba916d5d6320646ce3f77a89ad30b5346db",
    "private_key": "-----BEGIN PRIVATE KEY-----\nMIIEvAIBADANBgkqhkiG9w0BAQEFAASCBKYwggSiAgEAAoIBAQCQkbhU2CXqjQ59\nU4cV+Ib2YCZIxoKqSehAFrEMhv2SAjRzMzgOvk3Tea/FIgWPBOrAIaV/E3Zs1d7y\nErM2D2Q50aW5Pi6VVVxzMMTlMPH0JickJQssJhu2+fNE/lTs1mOZ6WCufPeYER33\nDo2F7+wDu1EpszHPqXpVmW/yAn15qmrbuHKOupLQJu/VwgORBIVD7a8wYob2vOr2\nuJe8XzzIo4EYhotA0hajZB1mLA/TzyyavlcBjkrGK0IQ5E6x4/DiyFhhGHW7UFN3\nBG0ZE0bi/otKHVt7T73GqNQTtrxWVzeGr/0Noe55fHZPuxmnLS1YJUIr3KdRi1OK\nGB6W6NDdAgMBAAECggEADs3NOWr03wLYw/6kq5xKfbo00Wj6gmOVE9L/CFBecPAm\n3NEW4XOdVpV0aVRli1Kuk0QexVeB3f08mj9N+LA0zDLqrIBwlrwp/mW1E98iN6Uc\nhvgAH+I7Hk6UGbGNkr8VbfJXAycq13iRP/ZOibOa0HsDAakm5aPuMgvHSdn1bVrd\nqjP3wRTBfMPPyf3FiJ1qfjQnc2vw6B1hkJap7iiqslBZ+sJ74LYOwugo/Y5V4KgB\n6SdvDeeLNpv2DP/S6V7YipvCiTrid0fj0f9VcmdcU49R/69fSSX5PVrM5zq/Agkt\nfNKnmrluJCKThoEK7IQmoRctZcdCZWDQuGXqNJbpQQKBgQDJ7JFjACwE4xvWmHIi\nH2xBsMfKZk9bRQhIRn0UGrAl5RjH8+vp1fFapdyru8COyqi0gG1pHuInn0CO+Yv8\npDKf7w9Y1o0ur4cmE7h/YSTzJ19gSA/Pq7MtGxzJGL/aLF8RHeIyS0M0e1jELNta\nOBMcH6H5iYF//q/fsRrbSFzQEQKBgQC3SQoSOaltBiHZz0bR50cy61sVNpYTi5/l\naFFj8FGi7Lu65Lq5tZIih25Y/vCUfZ2KVKDzyQPoUxVl9fjEcmh/jK2MfgQZOdpg\nn2jJ1TJQas2b4f7v7Nwj5wQA1Q9wzSb5SEJ3IMfmrbzdxcZ6hTlNtiyYvkEOC+Wi\nQ3g5QU5ADQKBgFuSjmiAVnYs7J4IapIw/+5WlnSiq1Bv4Q6t8OFiLQoyeGeNpipY\nnOkIGShEsFHRdGrPZ07p85QWc7ejUinT6SWAy8v1GPfYIIlTHjOeQZyH+Yf3hjwe\n2NYW2poUQEVYJBDmJYO7gBHX8mydDyk+DuSNL+6zvmfmf6oJbm2NxpGRAoGAEgTZ\nO591m6VNsKcjFEHDiyr+QmCicnt4lcoirkuTCwxxDFeuT9Gc804TOCagKkkLMu1N\nAYqSmsWIRgTflxiUU23WJgjBiGVapcMmPyl5j9RgMGIQeS/1GIZ+q0JHCVTx7vH+\nrs2HOZN9DOSDtcnhL1Wonr+dj671vXUana5g7gUCgYAch43B0d96Zm3n7dmYWeUN\nlKTqQzsZmCRskZwFZZVGg/TeLx/757IMaG7UtV5hi3s8YWLe2Fwq4Lgztrse4lUs\nuXlIPuZa/uT0fqySmYpdqqQfhxQX9cD3+7y5jUoG+OJRI4e+Jq2wDx1swFMs9gLz\n4DlTZxt+01vdfCsKzmz7wg==\n-----END PRIVATE KEY-----\n",
    "client_email": "firebase-adminsdk-f9ew0@pushno-7ead3.iam.gserviceaccount.com",
    "client_id": "102052453178483346003",
    "auth_uri": "https://accounts.google.com/o/oauth2/auth",
    "token_uri": "https://oauth2.googleapis.com/token",
    "auth_provider_x509_cert_url": "https://www.googleapis.com/oauth2/v1/certs",
    "client_x509_cert_url": "https://www.googleapis.com/robot/v1/metadata/x509/firebase-adminsdk-f9ew0%40pushno-7ead3.iam.gserviceaccount.com"
  }
  